{
    "settings" : {
        "number_of_shards" : 1
    },
    "mappings" : {
        "properties" : {
            "location" : { 
                "type" : "geo_point" 
            }
        }
    }
}

